('C:\\Users\\workshop\\Documents\\MEGA\\MEGAsync\\WOD\\test\\Automaton\\build\\Auto_lottery_generator\\PKG-00.pkg',
 {'BINARY': 1,
  'DATA': 1,
  'EXECUTABLE': 1,
  'EXTENSION': 1,
  'PYMODULE': 1,
  'PYSOURCE': 1,
  'PYZ': 0},
 [('PYZ-00.pyz',
   'C:\\Users\\workshop\\Documents\\MEGA\\MEGAsync\\WOD\\test\\Automaton\\build\\Auto_lottery_generator\\PYZ-00.pyz',
   'PYZ'),
  ('struct',
   'c:\\users\\workshop\\appdata\\local\\programs\\python\\python37\\lib\\struct.pyo',
   'PYMODULE'),
  ('pyimod01_os_path',
   'c:\\users\\workshop\\appdata\\local\\programs\\python\\python37\\lib\\site-packages\\PyInstaller\\loader\\pyimod01_os_path.pyc',
   'PYMODULE'),
  ('pyimod02_archive',
   'c:\\users\\workshop\\appdata\\local\\programs\\python\\python37\\lib\\site-packages\\PyInstaller\\loader\\pyimod02_archive.pyc',
   'PYMODULE'),
  ('pyimod03_importers',
   'c:\\users\\workshop\\appdata\\local\\programs\\python\\python37\\lib\\site-packages\\PyInstaller\\loader\\pyimod03_importers.pyc',
   'PYMODULE'),
  ('pyiboot01_bootstrap',
   'c:\\users\\workshop\\appdata\\local\\programs\\python\\python37\\lib\\site-packages\\PyInstaller\\loader\\pyiboot01_bootstrap.py',
   'PYSOURCE'),
  ('Auto_lottery_generator',
   'C:\\Users\\workshop\\Documents\\MEGA\\MEGAsync\\WOD\\test\\Automaton\\Auto_lottery_generator.py',
   'PYSOURCE'),
  ('api-ms-win-crt-locale-l1-1-0.dll',
   'C:\\Program '
   'Files\\AdoptOpenJDK\\jdk-11.0.3.7-hotspot\\bin\\api-ms-win-crt-locale-l1-1-0.dll',
   'BINARY'),
  ('api-ms-win-crt-stdio-l1-1-0.dll',
   'C:\\Program '
   'Files\\AdoptOpenJDK\\jdk-11.0.3.7-hotspot\\bin\\api-ms-win-crt-stdio-l1-1-0.dll',
   'BINARY'),
  ('python37.dll',
   'c:\\users\\workshop\\appdata\\local\\programs\\python\\python37\\python37.dll',
   'BINARY'),
  ('api-ms-win-crt-heap-l1-1-0.dll',
   'C:\\Program '
   'Files\\AdoptOpenJDK\\jdk-11.0.3.7-hotspot\\bin\\api-ms-win-crt-heap-l1-1-0.dll',
   'BINARY'),
  ('api-ms-win-crt-math-l1-1-0.dll',
   'C:\\Program '
   'Files\\AdoptOpenJDK\\jdk-11.0.3.7-hotspot\\bin\\api-ms-win-crt-math-l1-1-0.dll',
   'BINARY'),
  ('api-ms-win-crt-runtime-l1-1-0.dll',
   'C:\\Program '
   'Files\\AdoptOpenJDK\\jdk-11.0.3.7-hotspot\\bin\\api-ms-win-crt-runtime-l1-1-0.dll',
   'BINARY'),
  ('VCRUNTIME140.dll',
   'c:\\users\\workshop\\appdata\\local\\programs\\python\\python37\\VCRUNTIME140.dll',
   'BINARY'),
  ('ucrtbase.dll',
   'C:\\Program Files\\AdoptOpenJDK\\jdk-11.0.3.7-hotspot\\bin\\ucrtbase.dll',
   'BINARY'),
  ('api-ms-win-crt-time-l1-1-0.dll',
   'C:\\Program '
   'Files\\AdoptOpenJDK\\jdk-11.0.3.7-hotspot\\bin\\api-ms-win-crt-time-l1-1-0.dll',
   'BINARY'),
  ('api-ms-win-crt-string-l1-1-0.dll',
   'C:\\Program '
   'Files\\AdoptOpenJDK\\jdk-11.0.3.7-hotspot\\bin\\api-ms-win-crt-string-l1-1-0.dll',
   'BINARY'),
  ('api-ms-win-crt-environment-l1-1-0.dll',
   'C:\\Program '
   'Files\\AdoptOpenJDK\\jdk-11.0.3.7-hotspot\\bin\\api-ms-win-crt-environment-l1-1-0.dll',
   'BINARY'),
  ('api-ms-win-crt-conio-l1-1-0.dll',
   'C:\\Program '
   'Files\\AdoptOpenJDK\\jdk-11.0.3.7-hotspot\\bin\\api-ms-win-crt-conio-l1-1-0.dll',
   'BINARY'),
  ('api-ms-win-crt-filesystem-l1-1-0.dll',
   'C:\\Program '
   'Files\\AdoptOpenJDK\\jdk-11.0.3.7-hotspot\\bin\\api-ms-win-crt-filesystem-l1-1-0.dll',
   'BINARY'),
  ('api-ms-win-crt-process-l1-1-0.dll',
   'C:\\Program '
   'Files\\AdoptOpenJDK\\jdk-11.0.3.7-hotspot\\bin\\api-ms-win-crt-process-l1-1-0.dll',
   'BINARY'),
  ('api-ms-win-crt-convert-l1-1-0.dll',
   'C:\\Program '
   'Files\\AdoptOpenJDK\\jdk-11.0.3.7-hotspot\\bin\\api-ms-win-crt-convert-l1-1-0.dll',
   'BINARY'),
  ('api-ms-win-core-processthreads-l1-1-0.dll',
   'C:\\Program '
   'Files\\AdoptOpenJDK\\jdk-11.0.3.7-hotspot\\bin\\api-ms-win-core-processthreads-l1-1-0.dll',
   'BINARY'),
  ('api-ms-win-core-debug-l1-1-0.dll',
   'C:\\Program '
   'Files\\AdoptOpenJDK\\jdk-11.0.3.7-hotspot\\bin\\api-ms-win-core-debug-l1-1-0.dll',
   'BINARY'),
  ('api-ms-win-core-libraryloader-l1-1-0.dll',
   'C:\\Program '
   'Files\\AdoptOpenJDK\\jdk-11.0.3.7-hotspot\\bin\\api-ms-win-core-libraryloader-l1-1-0.dll',
   'BINARY'),
  ('api-ms-win-core-heap-l1-1-0.dll',
   'C:\\Program '
   'Files\\AdoptOpenJDK\\jdk-11.0.3.7-hotspot\\bin\\api-ms-win-core-heap-l1-1-0.dll',
   'BINARY'),
  ('api-ms-win-core-profile-l1-1-0.dll',
   'C:\\Program '
   'Files\\AdoptOpenJDK\\jdk-11.0.3.7-hotspot\\bin\\api-ms-win-core-profile-l1-1-0.dll',
   'BINARY'),
  ('api-ms-win-core-namedpipe-l1-1-0.dll',
   'C:\\Program '
   'Files\\AdoptOpenJDK\\jdk-11.0.3.7-hotspot\\bin\\api-ms-win-core-namedpipe-l1-1-0.dll',
   'BINARY'),
  ('api-ms-win-core-processenvironment-l1-1-0.dll',
   'C:\\Program '
   'Files\\AdoptOpenJDK\\jdk-11.0.3.7-hotspot\\bin\\api-ms-win-core-processenvironment-l1-1-0.dll',
   'BINARY'),
  ('api-ms-win-core-file-l1-2-0.dll',
   'C:\\Program '
   'Files\\AdoptOpenJDK\\jdk-11.0.3.7-hotspot\\bin\\api-ms-win-core-file-l1-2-0.dll',
   'BINARY'),
  ('api-ms-win-core-timezone-l1-1-0.dll',
   'C:\\Program '
   'Files\\AdoptOpenJDK\\jdk-11.0.3.7-hotspot\\bin\\api-ms-win-core-timezone-l1-1-0.dll',
   'BINARY'),
  ('api-ms-win-core-file-l1-1-0.dll',
   'C:\\Program '
   'Files\\AdoptOpenJDK\\jdk-11.0.3.7-hotspot\\bin\\api-ms-win-core-file-l1-1-0.dll',
   'BINARY'),
  ('api-ms-win-core-localization-l1-2-0.dll',
   'C:\\Program '
   'Files\\AdoptOpenJDK\\jdk-11.0.3.7-hotspot\\bin\\api-ms-win-core-localization-l1-2-0.dll',
   'BINARY'),
  ('api-ms-win-core-memory-l1-1-0.dll',
   'C:\\Program '
   'Files\\AdoptOpenJDK\\jdk-11.0.3.7-hotspot\\bin\\api-ms-win-core-memory-l1-1-0.dll',
   'BINARY'),
  ('api-ms-win-core-synch-l1-2-0.dll',
   'C:\\Program '
   'Files\\AdoptOpenJDK\\jdk-11.0.3.7-hotspot\\bin\\api-ms-win-core-synch-l1-2-0.dll',
   'BINARY'),
  ('api-ms-win-core-errorhandling-l1-1-0.dll',
   'C:\\Program '
   'Files\\AdoptOpenJDK\\jdk-11.0.3.7-hotspot\\bin\\api-ms-win-core-errorhandling-l1-1-0.dll',
   'BINARY'),
  ('api-ms-win-core-synch-l1-1-0.dll',
   'C:\\Program '
   'Files\\AdoptOpenJDK\\jdk-11.0.3.7-hotspot\\bin\\api-ms-win-core-synch-l1-1-0.dll',
   'BINARY'),
  ('api-ms-win-core-util-l1-1-0.dll',
   'C:\\Program '
   'Files\\AdoptOpenJDK\\jdk-11.0.3.7-hotspot\\bin\\api-ms-win-core-util-l1-1-0.dll',
   'BINARY'),
  ('api-ms-win-core-sysinfo-l1-1-0.dll',
   'C:\\Program '
   'Files\\AdoptOpenJDK\\jdk-11.0.3.7-hotspot\\bin\\api-ms-win-core-sysinfo-l1-1-0.dll',
   'BINARY'),
  ('api-ms-win-core-interlocked-l1-1-0.dll',
   'C:\\Program '
   'Files\\AdoptOpenJDK\\jdk-11.0.3.7-hotspot\\bin\\api-ms-win-core-interlocked-l1-1-0.dll',
   'BINARY'),
  ('api-ms-win-core-datetime-l1-1-0.dll',
   'C:\\Program '
   'Files\\AdoptOpenJDK\\jdk-11.0.3.7-hotspot\\bin\\api-ms-win-core-datetime-l1-1-0.dll',
   'BINARY'),
  ('api-ms-win-core-string-l1-1-0.dll',
   'C:\\Program '
   'Files\\AdoptOpenJDK\\jdk-11.0.3.7-hotspot\\bin\\api-ms-win-core-string-l1-1-0.dll',
   'BINARY'),
  ('api-ms-win-core-file-l2-1-0.dll',
   'C:\\Program '
   'Files\\AdoptOpenJDK\\jdk-11.0.3.7-hotspot\\bin\\api-ms-win-core-file-l2-1-0.dll',
   'BINARY'),
  ('api-ms-win-core-console-l1-1-0.dll',
   'C:\\Program '
   'Files\\AdoptOpenJDK\\jdk-11.0.3.7-hotspot\\bin\\api-ms-win-core-console-l1-1-0.dll',
   'BINARY'),
  ('api-ms-win-core-rtlsupport-l1-1-0.dll',
   'C:\\Program '
   'Files\\AdoptOpenJDK\\jdk-11.0.3.7-hotspot\\bin\\api-ms-win-core-rtlsupport-l1-1-0.dll',
   'BINARY'),
  ('api-ms-win-core-processthreads-l1-1-1.dll',
   'C:\\Program '
   'Files\\AdoptOpenJDK\\jdk-11.0.3.7-hotspot\\bin\\api-ms-win-core-processthreads-l1-1-1.dll',
   'BINARY'),
  ('api-ms-win-core-handle-l1-1-0.dll',
   'C:\\Program '
   'Files\\AdoptOpenJDK\\jdk-11.0.3.7-hotspot\\bin\\api-ms-win-core-handle-l1-1-0.dll',
   'BINARY'),
  ('_ssl',
   'c:\\users\\workshop\\appdata\\local\\programs\\python\\python37\\DLLs\\_ssl.pyd',
   'EXTENSION'),
  ('pyexpat',
   'c:\\users\\workshop\\appdata\\local\\programs\\python\\python37\\DLLs\\pyexpat.pyd',
   'EXTENSION'),
  ('unicodedata',
   'c:\\users\\workshop\\appdata\\local\\programs\\python\\python37\\DLLs\\unicodedata.pyd',
   'EXTENSION'),
  ('_hashlib',
   'c:\\users\\workshop\\appdata\\local\\programs\\python\\python37\\DLLs\\_hashlib.pyd',
   'EXTENSION'),
  ('_bz2',
   'c:\\users\\workshop\\appdata\\local\\programs\\python\\python37\\DLLs\\_bz2.pyd',
   'EXTENSION'),
  ('_lzma',
   'c:\\users\\workshop\\appdata\\local\\programs\\python\\python37\\DLLs\\_lzma.pyd',
   'EXTENSION'),
  ('_socket',
   'c:\\users\\workshop\\appdata\\local\\programs\\python\\python37\\DLLs\\_socket.pyd',
   'EXTENSION'),
  ('select',
   'c:\\users\\workshop\\appdata\\local\\programs\\python\\python37\\DLLs\\select.pyd',
   'EXTENSION'),
  ('libcrypto-1_1-x64.dll',
   'c:\\users\\workshop\\appdata\\local\\programs\\python\\python37\\DLLs\\libcrypto-1_1-x64.dll',
   'BINARY'),
  ('libssl-1_1-x64.dll',
   'c:\\users\\workshop\\appdata\\local\\programs\\python\\python37\\DLLs\\libssl-1_1-x64.dll',
   'BINARY'),
  ('api-ms-win-crt-utility-l1-1-0.dll',
   'C:\\Program '
   'Files\\AdoptOpenJDK\\jdk-11.0.3.7-hotspot\\bin\\api-ms-win-crt-utility-l1-1-0.dll',
   'BINARY'),
  ('base_library.zip',
   'C:\\Users\\workshop\\Documents\\MEGA\\MEGAsync\\WOD\\test\\Automaton\\build\\Auto_lottery_generator\\base_library.zip',
   'DATA'),
  ('Auto_lottery_generator.exe.manifest',
   'C:\\Users\\workshop\\Documents\\MEGA\\MEGAsync\\WOD\\test\\Automaton\\build\\Auto_lottery_generator\\Auto_lottery_generator.exe.manifest',
   'BINARY'),
  ('pyi-windows-manifest-filename Auto_lottery_generator.exe.manifest',
   '',
   'OPTION')],
 False,
 False,
 False)
